{"1":"Markkanzol","2":"Baldauhohn","3":"Fingfahl","4":"Markbal","5":"Dauzolfol","6":"Taldauzol","7":"Folkan","8":"Zoltal","9":"Surfahl","10":
"Hohnbalfahl","11":"Markheim","12":"Hohnkan","13":"Foltalhohn","14":"Kanbal","15":"Foldauhohn","16":"Fingzol","17":"Kanfing","18":"Baltaldau
","19":"Hohnfing","20":"Talkan","21":"Fingfahlsur","22":"Kanfahlfing","23":"Balkan","24":"Hohnzolmark","25":"Talsurfahl","26":"Folkanzol","2
7":"Hohntalheim","28":"Fingbalfol","29":"Hohnfol","30":"Finghohnbal","31":"Fingmarkfol","32":"Surfolfing","33":"Folfahl","34":"Daudau","35":
"Markkan","36":"Fahlfolfing","37":"Fingzolbal","38":"Fahlfolheim","39":"Zolmark","40":"Kanheim","41":"Dautal","42":"Daufing","43":"Kankansur
","44":"Balbalfing","45":"Finghohn","46":"Zolbalbal","47":"Fingfingfahl","48":"Finghohn","49":"Dausurfahl","50":"Fahlbal","51":"Folmarkhohn"
,"52":"Balmark","53":"Folfolfahl","54":"Taldauzol","55":"Folheimheim","56":"Zolbalfol","57":"Kandau","58":"Hohnkanfing","59":"Hohnzol","60":
"Folmark","61":"Balbal","62":"Fingtaltal","63":"Kanzol","64":"Kanmarkmark"}