1 	50 	80 	30 	2 	15 	- 	3 	100
2 	63 	98 	38 	3 	18 	- 	3 	113
3 	78 	119 	47 	3 	22 	- 	4 	128
4 	98 	145 	59 	4 	26 	- 	4 	144
5 	122 	177 	73 	5 	31 	- 	4 	163
6 	153 	216 	92 	7 	37 	- 	5 	184
7 	191 	264 	114 	8 	45 	- 	5 	208
8 	238 	322 	143 	11 	54 	- 	6 	235
9 	298 	393 	179 	14 	64 	- 	6 	266
10 	373 	479 	224 	17 	77 	Veterinary 	7 	300