1 	150 	100 	110 	10 	15 	- 	3 	Spy 1
2 	195 	132 	141 	13 	18 	- 	3 	-
3 	254 	174 	180 	16 	22 	Camouflage 	4 	Spy 2
4 	330 	230 	231 	20 	26 	- 	4 	-
5 	428 	304 	295 	26 	31 	- 	4 	-
6 	557 	401 	378 	33 	37 	Switch weapons 	5 	Spy 3
7 	724 	529 	484 	42 	45 	- 	5 	-
8 	941 	698 	619 	53 	54 	- 	6 	-
9 	1,224 	922 	793 	68 	64 	Dummies 	6 	Spy 4
10 	1,591 	1,217 	1,015 	86 	77 	- 	7 	-
11 	2,068 	1,606 	1,299 	109 	93 	- 	8
12 	2,688 	2,120 	1,662 	139 	111 	Exchange 	9 	Spy 5
13 	3,495 	2,798 	2,128 	176 	134 	- 	9 	-
14 	4,543 	3,694 	2,723 	224 	160 	- 	10 	-
15 	5,906 	4,876 	3,486 	284 	193 	Homeguard 	11 	-